appendices/data/DiodeIVTektronix.csv

Record Length,2500,Points,0,-8.00E-01,,Record Length,2500,Points,0,8.00E-02
Sample Interval,4.00E-04,s,4.00E-04,-8.80E-01,,Sample Interval,4.00E-04,s,4.00E-04,8.00E-02
Trigger Point,0,Samples,8.00E-04,-8.80E-01,,Trigger Point,0,Samples,8.00E-04,8.00E-02
,,,1.20E-03,-8.80E-01,,,,,1.20E-03,8.00E-02
,,,1.60E-03,-9.60E-01,,,,,1.60E-03,8.00E-02
,,,2.00E-03,-9.60E-01,,,,,2.00E-03,8.00E-02
Source,CH1,,2.40E-03,-1.04,,Source,CH2,,2.40E-03,8.00E-02
Vertical Units,Volts,,2.80E-03,-1.04,,Vertical Units,Volts,,2.80E-03,8.00E-02
Vertical Scale,2,,3.20E-03,-1.04,,Vertical Scale,2,,3.20E-03,8.00E-02
Vertical Offset,0,,3.60E-03,-1.12,,Vertical Offset,0,,3.60E-03,8.00E-02
Horizontal Units,s,,4.00E-03,-1.12,,Horizontal Units,s,,4.00E-03,8.00E-02
Horizontal Scale,1.00E-01,,4.40E-03,-1.12,,Horizontal Scale,1.00E-01,,4.40E-03,8.00E-02
Pt Fmt,Y,,4.80E-03,-1.1999999,,Pt Fmt,Y,,4.80E-03,8.00E-02
Yzero,8.40E-01,,5.20E-03,-1.1999999,,Yzero,6.40E-01,,5.20E-03,8.00E-02
Probe Atten,1,,5.60E-03,-1.1999999,,Probe Atten,1,,5.60E-03,0
,,,6.00E-03,-1.28,,,,,6.00E-03,8.00E-02
Note,TBS 1072B-EDU - 2:54:55 PM   10/21/2025,,6.40E-03,-1.36,,Note,TBS 1072B-EDU - 2:54:55 PM   10/21/2025,,6.40E-03,8.00E-02
,,,6.80E-03,-1.36,,,,,6.80E-03,8.00E-02
,,,7.20E-03,-1.36,,,,,7.20E-03,8.00E-02
,,,7.60E-03,-1.36,,,,,7.60E-03,8.00E-02
,,,8.00E-03,-1.4399999,,,,,8.00E-03,8.00E-02
,,,8.40E-03,-1.4399999,,,,,8.40E-03,0
,,,8.80E-03,-1.4399999,,,,,8.80E-03,8.00E-02
,,,9.20E-03,-1.4399999,,,,,9.20E-03,8.00E-02
,,,9.60E-03,-1.52,,,,,9.60E-03,8.00E-02
,,,1.00E-02,-1.5999999,,,,,1.00E-02,8.00E-02
,,,1.04E-02,-1.5999999,,,,,1.04E-02,8.00E-02
,,,1.08E-02,-1.6799999,,,,,1.08E-02,8.00E-02
,,,1.12E-02,-1.6799999,,,,,1.12E-02,8.00E-02
,,,1.16E-02,-1.6799999,,,,,1.16E-02,8.00E-02
,,,1.20E-02,-1.6799999,,,,,1.20E-02,0
,,,1.24E-02,-1.76,,,,,1.24E-02,8.00E-02
,,,1.28E-02,-1.76,,,,,1.28E-02,8.00E-02
,,,1.32E-02,-1.76,,,,,1.32E-02,8.00E-02
,,,1.36E-02,-1.8399999,,,,,1.36E-02,8.00E-02
,,,1.40E-02,-1.8399999,,,,,1.40E-02,8.00E-02
,,,1.44E-02,-1.92,,,,,1.44E-02,0
,,,1.48E-02,-1.92,,,,,1.48E-02,8.00E-02
,,,1.52E-02,-1.92,,,,,1.52E-02,0
,,,1.56E-02,-1.92,,,,,1.56E-02,8.00E-02
,,,1.60E-02,-1.92,,,,,1.60E-02,0
,,,1.64E-02,-1.92,,,,,1.64E-02,8.00E-02
,,,1.68E-02,-1.92,,,,,1.68E-02,8.00E-02
,,,1.72E-02,-1.8399999,,,,,1.72E-02,8.00E-02
,,,1.76E-02,-1.8399999,,,,,1.76E-02,8.00E-02
,,,1.80E-02,-1.76,,,,,1.80E-02,0
,,,1.84E-02,-1.8399999,,,,,1.84E-02,0
,,,1.88E-02,-1.76,,,,,1.88E-02,0
,,,1.92E-02,-1.76,,,,,1.92E-02,8.00E-02
,,,1.96E-02,-1.6799999,,,,,1.96E-02,8.00E-02
,,,2.00E-02,-1.6799999,,,,,2.00E-02,8.00E-02
,,,2.04E-02,-1.5999999,,,,,2.04E-02,8.00E-02
,,,2.08E-02,-1.5999999,,,,,2.08E-02,8.00E-02
,,,2.12E-02,-1.5999999,,,,,2.12E-02,0
,,,2.16E-02,-1.52,,,,,2.16E-02,8.00E-02
,,,2.20E-02,-1.52,,,,,2.20E-02,8.00E-02
,,,2.24E-02,-1.52,,,,,2.24E-02,8.00E-02
,,,2.28E-02,-1.52,,,,,2.28E-02,0
,,,2.32E-02,-1.4399999,,,,,2.32E-02,8.00E-02
,,,2.36E-02,-1.4399999,,,,,2.36E-02,8.00E-02
,,,2.40E-02,-1.36,,,,,2.40E-02,8.00E-02
,,,2.44E-02,-1.28,,,,,2.44E-02,0
,,,2.48E-02,-1.36,,,,,2.48E-02,8.00E-02
,,,2.52E-02,-1.36,,,,,2.52E-02,8.00E-02
,,,2.56E-02,-1.28,,,,,2.56E-02,8.00E-02
,,,2.60E-02,-1.1999999,,,,,2.60E-02,8.00E-02
,,,2.64E-02,-1.1999999,,,,,2.64E-02,8.00E-02
,,,2.68E-02,-1.12,,,,,2.68E-02,8.00E-02
,,,2.72E-02,-1.12,,,,,2.72E-02,0
,,,2.76E-02,-1.12,,,,,2.76E-02,8.00E-02
,,,2.80E-02,-1.04,,,,,2.80E-02,0
,,,2.84E-02,-1.12,,,,,2.84E-02,8.00E-02
,,,2.88E-02,-1.04,,,,,2.88E-02,8.00E-02
,,,2.92E-02,-9.60E-01,,,,,2.92E-02,8.00E-02
,,,2.96E-02,-9.60E-01,,,,,2.96E-02,8.00E-02
,,,3.00E-02,-9.60E-01,,,,,3.00E-02,8.00E-02
,,,3.04E-02,-8.80E-01,,,,,3.04E-02,8.00E-02
,,,3.08E-02,-8.80E-01,,,,,3.08E-02,8.00E-02
,,,3.12E-02,-8.80E-01,,,,,3.12E-02,8.00E-02
,,,3.16E-02,-8.00E-01,,,,,3.16E-02,8.00E-02
,,,3.20E-02,-8.00E-01,,,,,3.20E-02,8.00E-02
,,,3.24E-02,-8.00E-01,,,,,3.24E-02,8.00E-02
,,,3.28E-02,-8.00E-01,,,,,3.28E-02,8.00E-02
,,,3.32E-02,-7.20E-01,,,,,3.32E-02,8.00E-02
,,,3.36E-02,-7.20E-01,,,,,3.36E-02,8.00E-02
,,,3.40E-02,-6.40E-01,,,,,3.40E-02,8.00E-02
,,,3.44E-02,-11.9200001,,,,,3.44E-02,-11.5199995
,,,3.48E-02,-11.9200001,,,,,3.48E-02,-11.5199995
,,,3.52E-02,-11.9200001,,,,,3.52E-02,-11.5199995
,,,3.56E-02,-11.9200001,,,,,3.56E-02,-11.5199995
,,,3.60E-02,-11.9200001,,,,,3.60E-02,-11.5199995
,,,3.64E-02,-11.9200001,,,,,3.64E-02,-11.5199995
,,,3.68E-02,-11.9200001,,,,,3.68E-02,-11.5199995
,,,3.72E-02,-11.9200001,,,,,3.72E-02,-11.5199995
,,,3.76E-02,-11.9200001,,,,,3.76E-02,-11.5199995
,,,3.80E-02,-11.9200001,,,,,3.80E-02,-11.5199995
,,,3.84E-02,-11.9200001,,,,,3.84E-02,-11.5199995
,,,3.88E-02,-11.9200001,,,,,3.88E-02,-11.5199995
,,,3.92E-02,-11.9200001,,,,,3.92E-02,-11.5199995
,,,3.96E-02,-11.9200001,,,,,3.96E-02,-11.5199995
,,,4.00E-02,-11.9200001,,,,,4.00E-02,-11.5199995
,,,4.04E-02,-11.9200001,,,,,4.04E-02,-11.5199995
,,,4.08E-02,-11.9200001,,,,,4.08E-02,-11.5199995
,,,4.12E-02,-11.9200001,,,,,4.12E-02,-11.5199995
,,,4.16E-02,-11.9200001,,,,,4.16E-02,-11.5199995
,,,4.20E-02,-11.9200001,,,,,4.20E-02,-11.5199995
,,,4.24E-02,-11.9200001,,,,,4.24E-02,-11.5199995
,,,4.28E-02,-11.9200001,,,,,4.28E-02,-11.5199995
,,,4.32E-02,-11.9200001,,,,,4.32E-02,-11.5199995
,,,4.36E-02,-11.9200001,,,,,4.36E-02,-11.5199995
,,,4.40E-02,-11.9200001,,,,,4.40E-02,-11.5199995
,,,4.44E-02,-11.9200001,,,,,4.44E-02,-11.5199995
,,,4.48E-02,-11.9200001,,,,,4.48E-02,-11.5199995
,,,4.52E-02,-11.9200001,,,,,4.52E-02,-11.5199995
,,,4.56E-02,-11.9200001,,,,,4.56E-02,-11.5199995
,,,4.60E-02,-11.9200001,,,,,4.60E-02,-11.5199995
,,,4.64E-02,-11.9200001,,,,,4.64E-02,-11.5199995
,,,4.68E-02,-11.9200001,,,,,4.68E-02,-11.5199995
,,,4.72E-02,-11.9200001,,,,,4.72E-02,-11.5199995
,,,4.76E-02,-11.9200001,,,,,4.76E-02,-11.5199995
,,,4.80E-02,-11.9200001,,,,,4.80E-02,-11.5199995
,,,4.84E-02,-11.9200001,,,,,4.84E-02,-11.5199995
,,,4.88E-02,-11.9200001,,,,,4.88E-02,-11.5199995
,,,4.92E-02,-11.9200001,,,,,4.92E-02,-11.5199995
,,,4.96E-02,-11.9200001,,,,,4.96E-02,-11.5199995
,,,5.00E-02,-11.9200001,,,,,5.00E-02,-11.5199995
,,,5.04E-02,-11.9200001,,,,,5.04E-02,-11.5199995
,,,5.08E-02,-11.9200001,,,,,5.08E-02,-11.5199995
,,,5.12E-02,-11.9200001,,,,,5.12E-02,-11.5199995
,,,5.16E-02,-11.9200001,,,,,5.16E-02,-11.5199995
,,,5.20E-02,-11.9200001,,,,,5.20E-02,-11.5199995
,,,5.24E-02,-11.9200001,,,,,5.24E-02,-11.5199995
,,,5.28E-02,-11.9200001,,,,,5.28E-02,-11.5199995
,,,5.32E-02,-11.9200001,,,,,5.32E-02,-11.5199995
,,,5.36E-02,-11.9200001,,,,,5.36E-02,-11.5199995
,,,5.40E-02,-11.9200001,,,,,5.40E-02,-11.5199995
,,,5.44E-02,-11.9200001,,,,,5.44E-02,-11.5199995
,,,5.48E-02,-11.9200001,,,,,5.48E-02,-11.5199995
,,,5.52E-02,-11.9200001,,,,,5.52E-02,-11.5199995
,,,5.56E-02,-11.9200001,,,,,5.56E-02,-11.5199995
,,,5.60E-02,-11.9200001,,,,,5.60E-02,-11.5199995
,,,5.64E-02,-11.9200001,,,,,5.64E-02,-11.5199995
,,,5.68E-02,-11.9200001,,,,,5.68E-02,-11.5199995
,,,5.72E-02,-11.9200001,,,,,5.72E-02,-11.5199995
,,,5.76E-02,-11.9200001,,,,,5.76E-02,-11.5199995
,,,5.80E-02,-11.9200001,,,,,5.80E-02,-11.5199995
,,,5.84E-02,-11.9200001,,,,,5.84E-02,-11.5199995
,,,5.88E-02,-11.9200001,,,,,5.88E-02,-11.5199995
,,,5.92E-02,-11.9200001,,,,,5.92E-02,-11.5199995
,,,5.96E-02,-11.9200001,,,,,5.96E-02,-11.5199995
,,,6.00E-02,-11.9200001,,,,,6.00E-02,-11.5199995
,,,6.04E-02,-11.9200001,,,,,6.04E-02,-11.5199995
,,,6.08E-02,-11.9200001,,,,,6.08E-02,-11.5199995
,,,6.12E-02,-11.9200001,,,,,6.12E-02,-11.5199995
,,,6.16E-02,-11.9200001,,,,,6.16E-02,-11.5199995
,,,6.20E-02,-11.9200001,,,,,6.20E-02,-11.5199995
,,,6.24E-02,-11.9200001,,,,,6.24E-02,-11.5199995
,,,6.28E-02,-11.9200001,,,,,6.28E-02,-11.5199995
,,,6.32E-02,-11.9200001,,,,,6.32E-02,-11.5199995
,,,6.36E-02,-11.9200001,,,,,6.36E-02,-11.5199995
,,,6.40E-02,-11.9200001,,,,,6.40E-02,-11.5199995
,,,6.44E-02,-11.9200001,,,,,6.44E-02,-11.5199995
,,,6.48E-02,-11.9200001,,,,,6.48E-02,-11.5199995
,,,6.52E-02,-11.9200001,,,,,6.52E-02,-11.5199995
,,,6.56E-02,-11.9200001,,,,,6.56E-02,-11.5199995
,,,6.60E-02,-11.9200001,,,,,6.60E-02,-11.5199995
,,,6.64E-02,-11.9200001,,,,,6.64E-02,-11.5199995
,,,6.68E-02,-11.9200001,,,,,6.68E-02,-11.5199995
,,,6.72E-02,-11.9200001,,,,,6.72E-02,-11.5199995
,,,6.76E-02,-11.9200001,,,,,6.76E-02,-11.5199995
,,,6.80E-02,-11.9200001,,,,,6.80E-02,-11.5199995
,,,6.84E-02,-11.9200001,,,,,6.84E-02,-11.5199995
,,,6.88E-02,-11.9200001,,,,,6.88E-02,-11.5199995
,,,6.92E-02,-11.9200001,,,,,6.92E-02,-11.5199995
,,,6.96E-02,-11.9200001,,,,,6.96E-02,-11.5199995
,,,7.00E-02,-11.9200001,,,,,7.00E-02,-11.5199995
,,,7.04E-02,-11.9200001,,,,,7.04E-02,-11.5199995
,,,7.08E-02,-11.9200001,,,,,7.08E-02,-11.5199995
,,,7.12E-02,-11.9200001,,,,,7.12E-02,-11.5199995
,,,7.16E-02,-11.9200001,,,,,7.16E-02,-11.5199995
,,,7.20E-02,-11.9200001,,,,,7.20E-02,-11.5199995
,,,7.24E-02,-11.9200001,,,,,7.24E-02,-11.5199995
,,,7.28E-02,-11.9200001,,,,,7.28E-02,-11.5199995
,,,7.32E-02,-11.9200001,,,,,7.32E-02,-11.5199995
,,,7.36E-02,-11.9200001,,,,,7.36E-02,-11.5199995
,,,7.40E-02,-11.9200001,,,,,7.40E-02,-11.5199995
,,,7.44E-02,-11.9200001,,,,,7.44E-02,-11.5199995
,,,7.48E-02,-11.9200001,,,,,7.48E-02,-11.5199995
,,,7.52E-02,-11.9200001,,,,,7.52E-02,-11.5199995
,,,7.56E-02,-11.9200001,,,,,7.56E-02,-11.5199995
,,,7.60E-02,-11.9200001,,,,,7.60E-02,-11.5199995
,,,7.64E-02,-11.9200001,,,,,7.64E-02,-11.5199995
,,,7.68E-02,-11.9200001,,,,,7.68E-02,-11.5199995
,,,7.72E-02,-11.9200001,,,,,7.72E-02,-11.5199995
,,,7.76E-02,-11.9200001,,,,,7.76E-02,-11.5199995
,,,7.80E-02,-11.9200001,,,,,7.80E-02,-11.5199995
,,,7.84E-02,-11.9200001,,,,,7.84E-02,-11.5199995
,,,7.88E-02,-11.9200001,,,,,7.88E-02,-11.5199995
,,,7.92E-02,-11.9200001,,,,,7.92E-02,-11.5199995
,,,7.96E-02,-11.9200001,,,,,7.96E-02,-11.5199995
,,,8.00E-02,-11.9200001,,,,,8.00E-02,-11.5199995
,,,8.04E-02,-11.9200001,,,,,8.04E-02,-11.5199995
,,,8.08E-02,-11.9200001,,,,,8.08E-02,-11.5199995
,,,8.12E-02,-11.9200001,,,,,8.12E-02,-11.5199995
,,,8.16E-02,-11.9200001,,,,,8.16E-02,-11.5199995
,,,8.20E-02,-11.9200001,,,,,8.20E-02,-11.5199995
,,,8.24E-02,-11.9200001,,,,,8.24E-02,-11.5199995
,,,8.28E-02,-11.9200001,,,,,8.28E-02,-11.5199995
,,,8.32E-02,-11.9200001,,,,,8.32E-02,-11.5199995
,,,8.36E-02,-11.9200001,,,,,8.36E-02,-11.5199995
,,,8.40E-02,-11.9200001,,,,,8.40E-02,-11.5199995
,,,8.44E-02,-11.9200001,,,,,8.44E-02,-11.5199995
,,,8.48E-02,-11.9200001,,,,,8.48E-02,-11.5199995
,,,8.52E-02,-11.9200001,,,,,8.52E-02,-11.5199995
,,,8.56E-02,-11.9200001,,,,,8.56E-02,-11.5199995
,,,8.60E-02,-11.9200001,,,,,8.60E-02,-11.5199995
,,,8.64E-02,-11.9200001,,,,,8.64E-02,-11.5199995
,,,8.68E-02,-11.9200001,,,,,8.68E-02,-11.5199995
,,,8.72E-02,-11.9200001,,,,,8.72E-02,-11.5199995
,,,8.76E-02,-11.9200001,,,,,8.76E-02,-11.5199995
,,,8.80E-02,-11.9200001,,,,,8.80E-02,-11.5199995
,,,8.84E-02,-11.9200001,,,,,8.84E-02,-11.5199995
,,,8.88E-02,-11.9200001,,,,,8.88E-02,-11.5199995
,,,8.92E-02,-11.9200001,,,,,8.92E-02,-11.5199995
,,,8.96E-02,-11.9200001,,,,,8.96E-02,-11.5199995
,,,9.00E-02,-11.9200001,,,,,9.00E-02,-11.5199995
,,,9.04E-02,-11.9200001,,,,,9.04E-02,-11.5199995
,,,9.08E-02,-11.9200001,,,,,9.08E-02,-11.5199995
,,,9.12E-02,-11.9200001,,,,,9.12E-02,-11.5199995
,,,9.16E-02,-11.9200001,,,,,9.16E-02,-11.5199995
,,,9.20E-02,-11.9200001,,,,,9.20E-02,-11.5199995
,,,9.24E-02,-11.9200001,,,,,9.24E-02,-11.5199995
,,,9.28E-02,-11.9200001,,,,,9.28E-02,-11.5199995
,,,9.32E-02,-11.9200001,,,,,9.32E-02,-11.5199995
,,,9.36E-02,-11.9200001,,,,,9.36E-02,-11.5199995
,,,9.40E-02,-11.9200001,,,,,9.40E-02,-11.5199995
,,,9.44E-02,-11.9200001,,,,,9.44E-02,-11.5199995
,,,9.48E-02,-11.9200001,,,,,9.48E-02,-11.5199995
,,,9.52E-02,-11.9200001,,,,,9.52E-02,-11.5199995
,,,9.56E-02,-11.9200001,,,,,9.56E-02,-11.5199995
,,,9.60E-02,-11.9200001,,,,,9.60E-02,-11.5199995
,,,9.64E-02,-11.9200001,,,,,9.64E-02,-11.5199995
,,,9.68E-02,-11.9200001,,,,,9.68E-02,-11.5199995
,,,9.72E-02,-11.9200001,,,,,9.72E-02,-11.5199995
,,,9.76E-02,-11.9200001,,,,,9.76E-02,-11.5199995
,,,9.80E-02,-11.9200001,,,,,9.80E-02,-11.5199995
,,,9.84E-02,-11.9200001,,,,,9.84E-02,-11.5199995
,,,9.88E-02,-11.9200001,,,,,9.88E-02,-11.5199995
,,,9.92E-02,-11.9200001,,,,,9.92E-02,-11.5199995
,,,9.96E-02,-11.9200001,,,,,9.96E-02,-11.5199995
,,,1.00E-01,-11.9200001,,,,,1.00E-01,-11.5199995
,,,1.00E-01,-11.9200001,,,,,1.00E-01,-11.5199995
,,,1.01E-01,-11.9200001,,,,,1.01E-01,-11.5199995
,,,1.01E-01,-11.9200001,,,,,1.01E-01,-11.5199995
,,,1.02E-01,-11.9200001,,,,,1.02E-01,-11.5199995
,,,1.02E-01,-11.9200001,,,,,1.02E-01,-11.5199995
,,,1.02E-01,-11.9200001,,,,,1.02E-01,-11.5199995
,,,1.03E-01,-11.9200001,,,,,1.03E-01,-11.5199995
,,,1.03E-01,-11.9200001,,,,,1.03E-01,-11.5199995
,,,1.04E-01,-11.9200001,,,,,1.04E-01,-11.5199995
,,,1.04E-01,-11.9200001,,,,,1.04E-01,-11.5199995
,,,1.04E-01,-11.9200001,,,,,1.04E-01,-11.5199995
,,,1.05E-01,-11.9200001,,,,,1.05E-01,-11.5199995
,,,1.05E-01,-11.9200001,,,,,1.05E-01,-11.5199995
,,,1.06E-01,-11.9200001,,,,,1.06E-01,-11.5199995
,,,1.06E-01,-11.9200001,,,,,1.06E-01,-11.5199995
,,,1.06E-01,-11.9200001,,,,,1.06E-01,-11.5199995
,,,1.07E-01,-11.9200001,,,,,1.07E-01,-11.5199995
,,,1.07E-01,-11.9200001,,,,,1.07E-01,-11.5199995
,,,1.08E-01,-11.9200001,,,,,1.08E-01,-11.5199995
,,,1.08E-01,-11.9200001,,,,,1.08E-01,-11.5199995
,,,1.08E-01,-11.9200001,,,,,1.08E-01,-11.5199995
,,,1.09E-01,-11.9200001,,,,,1.09E-01,-11.5199995
,,,1.09E-01,-11.9200001,,,,,1.09E-01,-11.5199995
,,,1.10E-01,-11.9200001,,,,,1.10E-01,-11.5199995
,,,1.10E-01,-11.9200001,,,,,1.10E-01,-11.5199995
,,,1.10E-01,-11.9200001,,,,,1.10E-01,-11.5199995
,,,1.11E-01,-11.9200001,,,,,1.11E-01,-11.5199995
,,,1.11E-01,-11.9200001,,,,,1.11E-01,-11.5199995
,,,1.12E-01,-11.9200001,,,,,1.12E-01,-11.5199995
,,,1.12E-01,-11.9200001,,,,,1.12E-01,-11.5199995
,,,1.12E-01,-11.9200001,,,,,1.12E-01,-11.5199995
,,,1.13E-01,-11.9200001,,,,,1.13E-01,-11.5199995
,,,1.13E-01,-11.9200001,,,,,1.13E-01,-11.5199995
,,,1.14E-01,-11.9200001,,,,,1.14E-01,-11.5199995
,,,1.14E-01,-11.9200001,,,,,1.14E-01,-11.5199995
,,,1.14E-01,-11.9200001,,,,,1.14E-01,-11.5199995
,,,1.15E-01,-11.9200001,,,,,1.15E-01,-11.5199995
,,,1.15E-01,-11.9200001,,,,,1.15E-01,-11.5199995
,,,1.16E-01,-11.9200001,,,,,1.16E-01,-11.5199995
,,,1.16E-01,-11.9200001,,,,,1.16E-01,-11.5199995
,,,1.16E-01,-11.9200001,,,,,1.16E-01,-11.5199995
,,,1.17E-01,-11.9200001,,,,,1.17E-01,-11.5199995
,,,1.17E-01,-11.9200001,,,,,1.17E-01,-11.5199995
,,,1.18E-01,-11.9200001,,,,,1.18E-01,-11.5199995
,,,1.18E-01,-11.9200001,,,,,1.18E-01,-11.5199995
,,,1.18E-01,-11.9200001,,,,,1.18E-01,-11.5199995
,,,1.19E-01,-11.9200001,,,,,1.19E-01,-11.5199995
,,,1.19E-01,-11.9200001,,,,,1.19E-01,-11.5199995
,,,1.20E-01,-11.9200001,,,,,1.20E-01,-11.5199995
,,,1.20E-01,-11.9200001,,,,,1.20E-01,-11.5199995
,,,1.20E-01,-11.9200001,,,,,1.20E-01,-11.5199995
,,,1.21E-01,-11.9200001,,,,,1.21E-01,-11.5199995
,,,1.21E-01,-11.9200001,,,,,1.21E-01,-11.5199995
,,,1.22E-01,-11.9200001,,,,,1.22E-01,-11.5199995
,,,1.22E-01,-11.9200001,,,,,1.22E-01,-11.5199995
,,,1.22E-01,-11.9200001,,,,,1.22E-01,-11.5199995
,,,1.23E-01,-11.9200001,,,,,1.23E-01,-11.5199995
,,,1.23E-01,-11.9200001,,,,,1.23E-01,-11.5199995
,,,1.24E-01,-11.9200001,,,,,1.24E-01,-11.5199995
,,,1.24E-01,-11.9200001,,,,,1.24E-01,-11.5199995
,,,1.24E-01,-11.9200001,,,,,1.24E-01,-11.5199995
,,,1.25E-01,-11.9200001,,,,,1.25E-01,-11.5199995
,,,1.25E-01,-11.9200001,,,,,1.25E-01,-11.5199995
,,,1.26E-01,-11.9200001,,,,,1.26E-01,-11.5199995
,,,1.26E-01,-11.9200001,,,,,1.26E-01,-11.5199995
,,,1.26E-01,-11.9200001,,,,,1.26E-01,-11.5199995
,,,1.27E-01,-11.9200001,,,,,1.27E-01,-11.5199995
,,,1.27E-01,-11.9200001,,,,,1.27E-01,-11.5199995
,,,1.28E-01,-11.9200001,,,,,1.28E-01,-11.5199995
,,,1.28E-01,-11.9200001,,,,,1.28E-01,-11.5199995
,,,1.28E-01,-11.9200001,,,,,1.28E-01,-11.5199995
,,,1.29E-01,-11.9200001,,,,,1.29E-01,-11.5199995
,,,1.29E-01,-11.9200001,,,,,1.29E-01,-11.5199995
,,,1.30E-01,-11.9200001,,,,,1.30E-01,-11.5199995
,,,1.30E-01,-11.9200001,,,,,1.30E-01,-11.5199995
,,,1.30E-01,-11.9200001,,,,,1.30E-01,-11.5199995
,,,1.31E-01,-11.9200001,,,,,1.31E-01,-11.5199995
,,,1.31E-01,-11.9200001,,,,,1.31E-01,-11.5199995
,,,1.32E-01,-11.9200001,,,,,1.32E-01,-11.5199995
,,,1.32E-01,-11.9200001,,,,,1.32E-01,-11.5199995
,,,1.32E-01,-11.9200001,,,,,1.32E-01,-11.5199995
,,,1.33E-01,-11.9200001,,,,,1.33E-01,-11.5199995
,,,1.33E-01,-11.9200001,,,,,1.33E-01,-11.5199995
,,,1.34E-01,-11.9200001,,,,,1.34E-01,-11.5199995
,,,1.34E-01,-11.9200001,,,,,1.34E-01,-11.5199995
,,,1.34E-01,2.72000003,,,,,1.34E-01,2
,,,1.35E-01,2.72000003,,,,,1.35E-01,2
,,,1.35E-01,2.6399999,,,,,1.35E-01,2
,,,1.36E-01,2.6399999,,,,,1.36E-01,1.92
,,,1.36E-01,2.72000003,,,,,1.36E-01,1.92
,,,1.36E-01,2.6399999,,,,,1.36E-01,1.92
,,,1.37E-01,2.6399999,,,,,1.37E-01,1.8399999
,,,1.37E-01,2.5599999,,,,,1.37E-01,1.8399999
,,,1.38E-01,2.5599999,,,,,1.38E-01,1.8399999
,,,1.38E-01,2.5599999,,,,,1.38E-01,1.8399999
,,,1.38E-01,2.5599999,,,,,1.38E-01,1.8399999
,,,1.39E-01,2.48,,,,,1.39E-01,1.8399999
,,,1.39E-01,2.48,,,,,1.39E-01,1.76
,,,1.40E-01,2.48,,,,,1.40E-01,1.76
,,,1.40E-01,2.48,,,,,1.40E-01,1.6799999
,,,1.40E-01,2.48,,,,,1.40E-01,1.76
,,,1.41E-01,2.3999999,,,,,1.41E-01,1.6799999
,,,1.41E-01,2.3999999,,,,,1.41E-01,1.6799999
,,,1.42E-01,2.3999999,,,,,1.42E-01,1.6799999
,,,1.42E-01,2.3999999,,,,,1.42E-01,1.5999999
,,,1.42E-01,2.3999999,,,,,1.42E-01,1.5999999
,,,1.43E-01,2.3199999,,,,,1.43E-01,1.5999999
,,,1.43E-01,2.3199999,,,,,1.43E-01,1.5999999
,,,1.44E-01,2.3199999,,,,,1.44E-01,1.5999999
,,,1.44E-01,2.3199999,,,,,1.44E-01,1.52
,,,1.44E-01,2.24,,,,,1.44E-01,1.5999999
,,,1.45E-01,2.3199999,,,,,1.45E-01,1.52
,,,1.45E-01,2.24,,,,,1.45E-01,1.52
,,,1.46E-01,2.1599998,,,,,1.46E-01,1.52
,,,1.46E-01,2.1599998,,,,,1.46E-01,1.4399999
,,,1.46E-01,2.1599998,,,,,1.46E-01,1.4399999
,,,1.47E-01,2.0799999,,,,,1.47E-01,1.4399999
,,,1.47E-01,2.1599998,,,,,1.47E-01,1.4399999
,,,1.48E-01,2.0799999,,,,,1.48E-01,1.4399999
,,,1.48E-01,2.0799999,,,,,1.48E-01,1.36
,,,1.48E-01,2.0799999,,,,,1.48E-01,1.36
,,,1.49E-01,2.0799999,,,,,1.49E-01,1.36
,,,1.49E-01,2.0799999,,,,,1.49E-01,1.36
,,,1.50E-01,2,,,,,1.50E-01,1.28
,,,1.50E-01,2,,,,,1.50E-01,1.28
,,,1.50E-01,1.92,,,,,1.50E-01,1.28
,,,1.51E-01,2,,,,,1.51E-01,1.28
,,,1.51E-01,2,,,,,1.51E-01,1.1999999
,,,1.52E-01,1.92,,,,,1.52E-01,1.1999999
,,,1.52E-01,1.92,,,,,1.52E-01,1.1999999
,,,1.52E-01,1.92,,,,,1.52E-01,1.1999999
,,,1.53E-01,1.92,,,,,1.53E-01,1.12
,,,1.53E-01,1.8399999,,,,,1.53E-01,1.12
,,,1.54E-01,1.8399999,,,,,1.54E-01,1.12
,,,1.54E-01,1.92,,,,,1.54E-01,1.12
,,,1.54E-01,1.8399999,,,,,1.54E-01,1.12
,,,1.55E-01,1.8399999,,,,,1.55E-01,1.04
,,,1.55E-01,1.76,,,,,1.55E-01,1.04
,,,1.56E-01,1.8399999,,,,,1.56E-01,1.04
,,,1.56E-01,1.76,,,,,1.56E-01,1.04
,,,1.56E-01,1.6799999,,,,,1.56E-01,1.04
,,,1.57E-01,1.76,,,,,1.57E-01,1.04
,,,1.57E-01,1.6799999,,,,,1.57E-01,1.04
,,,1.58E-01,1.5999999,,,,,1.58E-01,9.60E-01
,,,1.58E-01,1.6799999,,,,,1.58E-01,9.60E-01
,,,1.58E-01,1.5999999,,,,,1.58E-01,8.80E-01
,,,1.59E-01,1.5999999,,,,,1.59E-01,9.60E-01
,,,1.59E-01,1.6799999,,,,,1.59E-01,8.80E-01
,,,1.60E-01,1.5999999,,,,,1.60E-01,8.80E-01
,,,1.60E-01,1.5999999,,,,,1.60E-01,8.80E-01
,,,1.60E-01,1.5999999,,,,,1.60E-01,8.00E-01
,,,1.61E-01,1.5999999,,,,,1.61E-01,8.80E-01
,,,1.61E-01,1.52,,,,,1.61E-01,8.00E-01
,,,1.62E-01,1.4399999,,,,,1.62E-01,8.00E-01
,,,1.62E-01,1.52,,,,,1.62E-01,7.20E-01
,,,1.62E-01,1.52,,,,,1.62E-01,7.20E-01
,,,1.63E-01,1.4399999,,,,,1.63E-01,7.20E-01
,,,1.63E-01,1.4399999,,,,,1.63E-01,7.20E-01
,,,1.64E-01,1.4399999,,,,,1.64E-01,7.20E-01
,,,1.64E-01,1.4399999,,,,,1.64E-01,6.40E-01
,,,1.64E-01,1.36,,,,,1.64E-01,6.40E-01
,,,1.65E-01,1.36,,,,,1.65E-01,6.40E-01
,,,1.65E-01,1.36,,,,,1.65E-01,6.40E-01
,,,1.66E-01,1.28,,,,,1.66E-01,5.60E-01
,,,1.66E-01,1.28,,,,,1.66E-01,5.60E-01
,,,1.66E-01,1.28,,,,,1.66E-01,5.60E-01
,,,1.67E-01,1.28,,,,,1.67E-01,5.60E-01
,,,1.67E-01,1.28,,,,,1.67E-01,5.60E-01
,,,1.68E-01,1.1999999,,,,,1.68E-01,5.60E-01
,,,1.68E-01,1.1999999,,,,,1.68E-01,4.80E-01
,,,1.68E-01,1.1999999,,,,,1.68E-01,4.80E-01
,,,1.69E-01,1.1999999,,,,,1.69E-01,4.80E-01
,,,1.69E-01,1.12,,,,,1.69E-01,4.00E-01
,,,1.70E-01,1.12,,,,,1.70E-01,4.00E-01
,,,1.70E-01,1.1999999,,,,,1.70E-01,4.00E-01
,,,1.70E-01,1.12,,,,,1.70E-01,4.00E-01
